…
On one side we have the SRA accession IDs from FASTQ filenames and on the other the UMI / sample names.
To create the command lines, with use {{< fa brands r-project >}} (only partial code shown) to match those

``` r
tibble(barcodes = fs::dir_ls("resources/GSE110009_RAW/", glob = "*.txt")) |>
  mutate(GEO_Accession = str_extract(barcodes, "GSM\\d{7}")) |> 
  right_join(sra_table, join_by(GEO_Accession == `GEO_Accession (exp)`)) -> sra_geo
sra_geo
```

``` default
# A tibble: 74 × 32
   barcodes      GEO_Accession Run   `Assay Type` AvgSpotLen   Bases BioProject BioSample   Bytes `Center Name`
   <fs::path>    <chr>         <chr> <chr>             <dbl>   <dbl> <chr>      <chr>       <dbl> <chr>        
 1 …283_P3-N.txt GSM2976283    SRR6… RNA-Seq             300 7.09e10 PRJNA4325… SAMN0845… 3.58e10 GEO          
 2 …4_P3-PT1.txt GSM2976284    SRR6… RNA-Seq             300 6.01e10 PRJNA4325… SAMN0845… 3.01e10 GEO          
 3 …5_P3-PT2.txt GSM2976285    SRR6… RNA-Seq             300 5.34e10 PRJNA4325… SAMN0845… 2.67e10 GEO          
 4 …6_P3-PT3.txt GSM2976286    SRR6… RNA-Seq             300 6.58e10 PRJNA4325… SAMN0845… 3.26e10 GEO          
 5 …7_P3-PT4.txt GSM2976287    SRR6… RNA-Seq             300 6.20e10 PRJNA4325… SAMN0845… 3.10e10 GEO          
 6 …_P4-LyM1.txt GSM2976289    SRR6… RNA-Seq             300 6.30e10 PRJNA4325… SAMN0845… 3.16e10 GEO          
 7 …291_P4-N.txt GSM2976291    SRR6… RNA-Seq             300 6.18e10 PRJNA4325… SAMN0845… 3.01e10 GEO          
 8 …2_P4-PT1.txt GSM2976292    SRR6… RNA-Seq             300 6.49e10 PRJNA4325… SAMN0845… 3.29e10 GEO          
 9 …3_P4-PT2.txt GSM2976293    SRR6… RNA-Seq             300 6.08e10 PRJNA4325… SAMN0845… 3.08e10 GEO          
10 …1-1-lyM2.txt GSM2976294    SRR6… RNA-Seq             300 5.77e10 PRJNA4325… SAMN0845… 2.88e10 GEO          
# ℹ 64 more rows
# ℹ 22 more variables: Consent <chr>, `DATASTORE filetype` <chr>, `DATASTORE provider` <chr>,
#   `DATASTORE region` <chr>, Experiment <chr>, Instrument <chr>, LibraryLayout <chr>, LibrarySelection <chr>,
#   LibrarySource <chr>, Organism <chr>, Platform <chr>, ReleaseDate <dttm>, create_date <dttm>,
#   version <dbl>, `Sample Name` <chr>, source_name <chr>, `SRA Study` <chr>, disease_state <chr>, Type <chr>,
#   patient_disease <chr>, PATIENT_ID <dbl>, Tissue <chr>
```
…
