…
See how you can the 58 pages tables in one tibble:

``` r
library(tidyverse)
library(tabulapdf)

fr <- "result list - 33. Int. DEULUX Lauf 2025 - 10km Volksbank Trier Eifel eG Hauptlauf.pdf"
seq_len(get_n_pages(fr)) |> 
   map_dfr(\(p) extract_tables(fr, pages = p)) -> zeit
zeit
```

```
# A tibble: 1,324 × 10
   Place `M/F.` Lastname    Firstname `Pl/Cl` `Class S` artnumb `Nr ation` Club 
   <dbl>  <dbl> <chr>       <chr>       <dbl> <chr>       <dbl> <lgl>      <chr>
 1     1      1 Weicherding Gil             1 M20             8 NA         Celt…
 2     2      2 Weicherding Charel          2 M20             6 NA         Celt…
 3     3      3 Ebel        Alois           1 M30           561 NA         West…
 4     4      4 Louis       Corentin        2 M30          1153 NA         TRAK…
 5     5      5 Miereczko   Maciek          1 M45           866 NA         LG D…
 6     6      6 Delon       Denis           3 M30          1525 NA         NA   
 7     7      7 Scheller    Luc             1 M40           859 NA         Celt…
 8     8      8 Gierens     Maurice         3 M20          1107 NA         Powe…
 9     9      9 Kass        Christop…       2 M40          1185 NA         CA F…
10    10     10 Ballbach    Quinn           4 M20           425 NA         NA   
# ℹ 1,314 more rows
# ℹ 1 more variable: Zeit <chr>
# ℹ Use `print(n = ...)` to see more rows
```

We are missing the country of origin, which was asked at registration. Another PDF of registered people is available:

``` r
reg <- "liste des participants - 33. Int. DEULUX Lauf 2025 - 10km Volksbank Trier Eifel eG Hauptlauf.pdf"
seq_len(get_n_pages(reg)) |> 
   map_dfr(\(p) extract_tables(reg, pages = p)) -> registrations
registrations

```

```
# A tibble: 1,560 × 5
   Nom     `PrÃ©nom`  `M/F`    Nation Club               
   <chr>   <chr>      <chr>    <chr>  <chr>              
 1 Sander  Cosima     féminin  NA     Team Slowmotion    
 2 Sander  Anna       féminin  NA     Team Slowmotion    
 3 Schmit  Mike       masculin NA     Spiridon Lëtzebuerg
 4 Quintus Nancy      féminin  NA     RBUAP              
 5 Clement Manuel     masculin NA     Die Eifelläufer    
 6 Ochs    Svenja     féminin  NA     NA                 
 7 Berg    Alwin      masculin NA     Die Eifelläufer    
 8 Lanter  Tom        masculin LUX    NA                 
 9 Weber   Christiane féminin  LUX    NA                 
10 Vesque  Yves       masculin LUX    CGDIS              
# ℹ 1,550 more rows
# ℹ Use `print(n = ...)` to see more rows
```
…
